# system info ax_data_issp on 2016.12.21.17:54:20
system_info:
name,value
DEVICE,10AX115S3F45E2SG
DEVICE_FAMILY,Arria 10
GENERATION_ID,1482339259
#
#
# Files generated for ax_data_issp on 2016.12.21.17:54:20
files:
filepath,kind,attributes,module,is_top
sim/ax_data_issp.v,VERILOG,CONTAINS_INLINE_CONFIGURATION,ax_data_issp,true
altera_in_system_sources_probes_161/sim/altsource_probe.v,VERILOG,,altsource_probe,false
#
# Map from instance-path to kind of module
instances:
instancePath,module
ax_data_issp.in_system_sources_probes_0,altsource_probe
