xpm_cdc.sv,systemverilog,xil_defaultlib,../../../../../../../../../../../../../../opt/Xilinx/Vivado/2016.2/data/ip/xpm/xpm_cdc/hdl/xpm_cdc.sv,
xpm_memory_base.sv,systemverilog,xil_defaultlib,../../../../../../../../../../../../../../opt/Xilinx/Vivado/2016.2/data/ip/xpm/xpm_memory/hdl/xpm_memory_base.sv,
xpm_memory_dpdistram.sv,systemverilog,xil_defaultlib,../../../../../../../../../../../../../../opt/Xilinx/Vivado/2016.2/data/ip/xpm/xpm_memory/hdl/xpm_memory_dpdistram.sv,
xpm_memory_dprom.sv,systemverilog,xil_defaultlib,../../../../../../../../../../../../../../opt/Xilinx/Vivado/2016.2/data/ip/xpm/xpm_memory/hdl/xpm_memory_dprom.sv,
xpm_memory_sdpram.sv,systemverilog,xil_defaultlib,../../../../../../../../../../../../../../opt/Xilinx/Vivado/2016.2/data/ip/xpm/xpm_memory/hdl/xpm_memory_sdpram.sv,
xpm_memory_spram.sv,systemverilog,xil_defaultlib,../../../../../../../../../../../../../../opt/Xilinx/Vivado/2016.2/data/ip/xpm/xpm_memory/hdl/xpm_memory_spram.sv,
xpm_memory_sprom.sv,systemverilog,xil_defaultlib,../../../../../../../../../../../../../../opt/Xilinx/Vivado/2016.2/data/ip/xpm/xpm_memory/hdl/xpm_memory_sprom.sv,
xpm_memory_tdpram.sv,systemverilog,xil_defaultlib,../../../../../../../../../../../../../../opt/Xilinx/Vivado/2016.2/data/ip/xpm/xpm_memory/hdl/xpm_memory_tdpram.sv,
xpm_VCOMP.vhd,vhdl,xpm,../../../../../../../../../../../../../../opt/Xilinx/Vivado/2016.2/data/ip/xpm/xpm_VCOMP.vhd,
blk_mem_gen_v8_3.v,verilog,blk_mem_gen_v8_3_3,../../../ipstatic/blk_mem_gen_v8_3_3/simulation/blk_mem_gen_v8_3.v,
xlx_k7v7_tx_dpram.v,verilog,xil_defaultlib,../../../../../../../../../gbt_bank/xilinx_k7v7/gbt_tx/tx_dpram_vivado/sim/xlx_k7v7_tx_dpram.v,
glbl.v,Verilog,xil_defaultlib,glbl.v
