Design Route Status
                                               :      # nets :
   ------------------------------------------- : ----------- :
   # of logical nets.......................... :       11894 :
       # of nets not needing routing.......... :        3297 :
           # of internally routed nets........ :        3246 :
           # of nets with no loads............ :          51 :
       # of routable nets..................... :        8597 :
           # of fully routed nets............. :        8597 :
       # of nets with routing errors.......... :           0 :
   ------------------------------------------- : ----------- :

