Info: Starting: Create simulation model
Info: qsys-generate D:\NewGBTRelease\gbt_bank\altera_a10\gbt_tx\alt_ax_tx_dpram\alt_ax_tx_dpram.qsys --simulation=VERILOG --allow-mixed-language-simulation --output-directory=D:\NewGBTRelease\gbt_bank\altera_a10\gbt_tx\alt_ax_tx_dpram\alt_ax_tx_dpram --family="Arria 10" --part=10AX115S3F45E2SG
Progress: Loading alt_ax_tx_dpram/alt_ax_tx_dpram.qsys
Progress: Reading input file
Progress: Adding ram_2port_0 [ram_2port 16.1]
Progress: Parameterizing module ram_2port_0
Progress: Building connections
Progress: Parameterizing connections
Progress: Validating
Progress: Done reading input file
: alt_ax_tx_dpram.ram_2port_0: Targeting device family: Arria 10.
: alt_ax_tx_dpram.ram_2port_0: 'q_a' output bus width will be ignored while using one read port and one write port mode.
: alt_ax_tx_dpram.ram_2port_0: Tab Output1 is unavailable while using 'Dual clock: use separate read and write clocks'.
: alt_ax_tx_dpram.ram_2port_0: Tab Output2 is unavailable while using one read port and one write port.
Info: alt_ax_tx_dpram: "Transforming system: alt_ax_tx_dpram"
Info: alt_ax_tx_dpram: Running transform generation_view_transform
Info: alt_ax_tx_dpram: Running transform generation_view_transform took 0.000s
Info: ram_2port_0: Running transform generation_view_transform
Info: ram_2port_0: Running transform generation_view_transform took 0.000s
Info: alt_ax_tx_dpram: Running transform merlin_avalon_transform
Info: alt_ax_tx_dpram: Running transform merlin_avalon_transform took 0.060s
Info: alt_ax_tx_dpram: "Naming system components in system: alt_ax_tx_dpram"
Info: alt_ax_tx_dpram: "Processing generation queue"
Info: alt_ax_tx_dpram: "Generating: alt_ax_tx_dpram"
Info: alt_ax_tx_dpram: "Generating: alt_ax_tx_dpram_ram_2port_161_txdisfi"
Info: alt_ax_tx_dpram: Done "alt_ax_tx_dpram" with 2 modules, 2 files
Info: qsys-generate succeeded.
Info: Finished: Create simulation model
Info: Starting: Create Modelsim Project.
Info: sim-script-gen --spd=D:\NewGBTRelease\gbt_bank\altera_a10\gbt_tx\alt_ax_tx_dpram\alt_ax_tx_dpram\alt_ax_tx_dpram.spd --output-directory=D:/NewGBTRelease/gbt_bank/altera_a10/gbt_tx/alt_ax_tx_dpram/alt_ax_tx_dpram/sim/ --use-relative-paths=true
Info: Doing: ip-make-simscript --spd=D:\NewGBTRelease\gbt_bank\altera_a10\gbt_tx\alt_ax_tx_dpram\alt_ax_tx_dpram\alt_ax_tx_dpram.spd --output-directory=D:/NewGBTRelease/gbt_bank/altera_a10/gbt_tx/alt_ax_tx_dpram/alt_ax_tx_dpram/sim/ --use-relative-paths=true
Info: Generating the following file(s) for MODELSIM simulator in D:/NewGBTRelease/gbt_bank/altera_a10/gbt_tx/alt_ax_tx_dpram/alt_ax_tx_dpram/sim/ directory:
Info: 	mentor/msim_setup.tcl
Info: Generating the following file(s) for VCS simulator in D:/NewGBTRelease/gbt_bank/altera_a10/gbt_tx/alt_ax_tx_dpram/alt_ax_tx_dpram/sim/ directory:
Info: 	synopsys/vcs/vcs_setup.sh
Info: Generating the following file(s) for VCSMX simulator in D:/NewGBTRelease/gbt_bank/altera_a10/gbt_tx/alt_ax_tx_dpram/alt_ax_tx_dpram/sim/ directory:
Info: 	synopsys/vcsmx/synopsys_sim.setup
Info: 	synopsys/vcsmx/vcsmx_setup.sh
Info: Generating the following file(s) for NCSIM simulator in D:/NewGBTRelease/gbt_bank/altera_a10/gbt_tx/alt_ax_tx_dpram/alt_ax_tx_dpram/sim/ directory:
Info: 	cadence/cds.lib
Info: 	cadence/hdl.var
Info: 	cadence/ncsim_setup.sh
Info: 	1 .cds.lib files in cadence/cds_libs/ directory
Info: Generating the following file(s) for RIVIERA simulator in D:/NewGBTRelease/gbt_bank/altera_a10/gbt_tx/alt_ax_tx_dpram/alt_ax_tx_dpram/sim/ directory:
Info: 	aldec/rivierapro_setup.tcl
Info: For information on how to simulate your IP, see the explanatory comments in the simulator-specific subdirectories under D:/NewGBTRelease/gbt_bank/altera_a10/gbt_tx/alt_ax_tx_dpram/alt_ax_tx_dpram/sim/.
Info: Regenerate these scripts whenever you make any change to any Quartus-generated IP in your project.
Info: Finished: Create Modelsim Project.
Info: Starting: Create block symbol file (.bsf)
Info: qsys-generate D:\NewGBTRelease\gbt_bank\altera_a10\gbt_tx\alt_ax_tx_dpram\alt_ax_tx_dpram.qsys --block-symbol-file --output-directory=D:\NewGBTRelease\gbt_bank\altera_a10\gbt_tx\alt_ax_tx_dpram\alt_ax_tx_dpram --family="Arria 10" --part=10AX115S3F45E2SG
Progress: Loading alt_ax_tx_dpram/alt_ax_tx_dpram.qsys
Progress: Reading input file
Progress: Adding ram_2port_0 [ram_2port 16.1]
Progress: Parameterizing module ram_2port_0
Progress: Building connections
Progress: Parameterizing connections
Progress: Validating
Progress: Done reading input file
: alt_ax_tx_dpram.ram_2port_0: Targeting device family: Arria 10.
: alt_ax_tx_dpram.ram_2port_0: 'q_a' output bus width will be ignored while using one read port and one write port mode.
: alt_ax_tx_dpram.ram_2port_0: Tab Output1 is unavailable while using 'Dual clock: use separate read and write clocks'.
: alt_ax_tx_dpram.ram_2port_0: Tab Output2 is unavailable while using one read port and one write port.
Info: qsys-generate succeeded.
Info: Finished: Create block symbol file (.bsf)
Info: 
Info: Starting: Create HDL design files for synthesis
Info: qsys-generate D:\NewGBTRelease\gbt_bank\altera_a10\gbt_tx\alt_ax_tx_dpram\alt_ax_tx_dpram.qsys --synthesis=VERILOG --output-directory=D:\NewGBTRelease\gbt_bank\altera_a10\gbt_tx\alt_ax_tx_dpram\alt_ax_tx_dpram --family="Arria 10" --part=10AX115S3F45E2SG
Progress: Loading alt_ax_tx_dpram/alt_ax_tx_dpram.qsys
Progress: Reading input file
Progress: Adding ram_2port_0 [ram_2port 16.1]
Progress: Parameterizing module ram_2port_0
Progress: Building connections
Progress: Parameterizing connections
Progress: Validating
Progress: Done reading input file
: alt_ax_tx_dpram.ram_2port_0: Targeting device family: Arria 10.
: alt_ax_tx_dpram.ram_2port_0: 'q_a' output bus width will be ignored while using one read port and one write port mode.
: alt_ax_tx_dpram.ram_2port_0: Tab Output1 is unavailable while using 'Dual clock: use separate read and write clocks'.
: alt_ax_tx_dpram.ram_2port_0: Tab Output2 is unavailable while using one read port and one write port.
Info: alt_ax_tx_dpram: "Transforming system: alt_ax_tx_dpram"
Info: alt_ax_tx_dpram: Running transform generation_view_transform
Info: alt_ax_tx_dpram: Running transform generation_view_transform took 0.000s
Info: ram_2port_0: Running transform generation_view_transform
Info: ram_2port_0: Running transform generation_view_transform took 0.000s
Info: alt_ax_tx_dpram: Running transform merlin_avalon_transform
Info: alt_ax_tx_dpram: Running transform merlin_avalon_transform took 0.017s
Info: alt_ax_tx_dpram: "Naming system components in system: alt_ax_tx_dpram"
Info: alt_ax_tx_dpram: "Processing generation queue"
Info: alt_ax_tx_dpram: "Generating: alt_ax_tx_dpram"
Info: alt_ax_tx_dpram: "Generating: alt_ax_tx_dpram_ram_2port_161_txdisfi"
Info: alt_ax_tx_dpram: Done "alt_ax_tx_dpram" with 2 modules, 3 files
Info: qsys-generate succeeded.
Info: Finished: Create HDL design files for synthesis
