Copyright 1986-2016 Xilinx, Inc. All Rights Reserved.
-------------------------------------------------------------------------------------------------------------------------------------------
| Tool Version     : Vivado v.2016.4 (lin64) Build 1756540 Mon Jan 23 19:11:19 MST 2017
| Date             : Tue Jan 23 15:01:38 2018
| Host             : lxtest.cern.ch running 64-bit Scientific Linux CERN SLC release 6.9 (Carbon)
| Command          : report_power -file fc7_top_power_routed.rpt -pb fc7_top_power_summary_routed.pb -rpx fc7_top_power_routed.rpx
| Design           : fc7_top
| Device           : xc7k420tffg1156-2
| Design State     : routed
| Grade            : commercial
| Process          : typical
| Characterization : Production
-------------------------------------------------------------------------------------------------------------------------------------------

Power Report

Table of Contents
-----------------
1. Summary
1.1 On-Chip Components
1.2 Power Supply Summary
1.3 Confidence Level
2. Settings
2.1 Environment
2.2 Clock Constraints
3. Detailed Reports
3.1 By Hierarchy

1. Summary
----------

+--------------------------+-------+
| Total On-Chip Power (W)  | 1.223 |
| Dynamic (W)              | 0.987 |
| Device Static (W)        | 0.236 |
| Total Off-Chip Power (W) | 0.001 |
| Effective TJA (C/W)      | 0.2   |
| Max Ambient (C)          | 84.8  |
| Junction Temperature (C) | 25.2  |
| Confidence Level         | Low   |
| Setting File             | ---   |
| Simulation Activity File | ---   |
| Design Nets Matched      | NA    |
+--------------------------+-------+


1.1 On-Chip Components
----------------------

+--------------------------+-----------+----------+-----------+-----------------+
| On-Chip                  | Power (W) | Used     | Available | Utilization (%) |
+--------------------------+-----------+----------+-----------+-----------------+
| Clocks                   |     0.051 |       15 |       --- |             --- |
| Slice Logic              |     0.006 |    24140 |       --- |             --- |
|   LUT as Logic           |     0.005 |     8620 |    260600 |            3.31 |
|   CARRY4                 |    <0.001 |      328 |     74650 |            0.44 |
|   Register               |    <0.001 |    11964 |    521200 |            2.30 |
|   LUT as Shift Register  |    <0.001 |      484 |    108600 |            0.45 |
|   BUFG                   |    <0.001 |        2 |        32 |            6.25 |
|   F7/F8 Muxes            |    <0.001 |      262 |    298600 |            0.09 |
|   LUT as Distributed RAM |    <0.001 |       24 |    108600 |            0.02 |
|   Others                 |     0.000 |      717 |       --- |             --- |
| Signals                  |     0.010 |    18450 |       --- |             --- |
| Block RAM                |     0.032 |       33 |       835 |            3.95 |
| MMCM                     |     0.106 |        1 |         8 |           12.50 |
| PLL                      |     0.197 |        2 |         8 |           25.00 |
| I/O                      |     0.089 |      160 |       400 |           40.00 |
| GTX                      |     0.497 |        2 |        32 |            6.25 |
| Static Power             |     0.236 |          |           |                 |
| Total                    |     1.223 |          |           |                 |
+--------------------------+-----------+----------+-----------+-----------------+


1.2 Power Supply Summary
------------------------

+-----------+-------------+-----------+-------------+------------+
| Source    | Voltage (V) | Total (A) | Dynamic (A) | Static (A) |
+-----------+-------------+-----------+-------------+------------+
| Vccint    |       1.000 |     0.253 |       0.143 |      0.110 |
| Vccaux    |       1.800 |     0.198 |       0.161 |      0.038 |
| Vcco33    |       3.300 |     0.010 |       0.009 |      0.001 |
| Vcco25    |       2.500 |     0.023 |       0.022 |      0.001 |
| Vcco18    |       1.800 |     0.001 |       0.000 |      0.001 |
| Vcco15    |       1.500 |     0.000 |       0.000 |      0.000 |
| Vcco135   |       1.350 |     0.000 |       0.000 |      0.000 |
| Vcco12    |       1.200 |     0.000 |       0.000 |      0.000 |
| Vccaux_io |       1.800 |     0.000 |       0.000 |      0.000 |
| Vccbram   |       1.000 |     0.006 |       0.002 |      0.004 |
| MGTAVcc   |       1.000 |     0.256 |       0.251 |      0.004 |
| MGTAVtt   |       1.200 |     0.186 |       0.181 |      0.005 |
| MGTVccaux |       1.800 |     0.000 |       0.000 |      0.000 |
| Vccadc    |       1.800 |     0.020 |       0.000 |      0.020 |
+-----------+-------------+-----------+-------------+------------+


1.3 Confidence Level
--------------------

+-----------------------------+------------+--------------------------------------------------------+------------------------------------------------------------------------------------------------------------+
| User Input Data             | Confidence | Details                                                | Action                                                                                                     |
+-----------------------------+------------+--------------------------------------------------------+------------------------------------------------------------------------------------------------------------+
| Design implementation state | High       | Design is routed                                       |                                                                                                            |
| Clock nodes activity        | High       | User specified more than 95% of clocks                 |                                                                                                            |
| I/O nodes activity          | Low        | More than 75% of inputs are missing user specification | Provide missing input activity with simulation results or by editing the "By Resource Type -> I/Os" view   |
| Internal nodes activity     | Medium     | User specified less than 25% of internal nodes         | Provide missing internal nodes activity with simulation results or by editing the "By Resource Type" views |
| Device models               | High       | Device models are Production                           |                                                                                                            |
|                             |            |                                                        |                                                                                                            |
| Overall confidence level    | Low        |                                                        |                                                                                                            |
+-----------------------------+------------+--------------------------------------------------------+------------------------------------------------------------------------------------------------------------+


2. Settings
-----------

2.1 Environment
---------------

+-----------------------+-------------------------+
| Ambient Temp (C)      | 25.0                    |
| ThetaJA (C/W)         | 0.2                     |
| Airflow (LFM)         | 0                       |
| Heat Sink             | low (Low Profile)       |
| ThetaSA (C/W)         | 2.4                     |
| Board Selection       | Custom                  |
| # of Board Layers     | 16+ (16 or more Layers) |
| Board Temperature (C) | 25.0                    |
+-----------------------+-------------------------+


2.2 Clock Constraints
---------------------

+-------------------------------------------------------------------------+---------------------------------------------------+-----------------+
| Clock                                                                   | Domain                                            | Constraint (ns) |
+-------------------------------------------------------------------------+---------------------------------------------------+-----------------+
| CLKFBIN                                                                 | sys/eth/CLKFBIN                                   |            16.0 |
| MGT_REFCLK                                                              | ttc_mgt_xpoint_c_p                                |             8.3 |
| clk125_ub                                                               | sys/eth/clk125_ub                                 |             8.0 |
| clk62_5_ub                                                              | sys/eth/clk62_5_ub                                |            16.0 |
| clk_out1_xlx_k7v7_tx_pll                                                | usr/txPll/inst/clk_out1_xlx_k7v7_tx_pll           |            25.0 |
| clkfbout                                                                | sys/clocks/syspll_inst/clkfbout                   |            16.0 |
| clkfbout_xlx_k7v7_tx_pll                                                | usr/txPll/inst/clkfbout_xlx_k7v7_tx_pll           |             8.3 |
| clkout0                                                                 | sys/clocks/syspll_inst/clkout0                    |            32.0 |
| dbg_hub/inst/SWITCH_N_EXT_BSCAN.bscan_inst/SERIES7_BSCAN.bscan_inst/TCK | dbg_hub/inst/SWITCH_N_EXT_BSCAN.bscan_inst/tck_bs |            33.0 |
| eth_txoutclk                                                            | sys/eth/txoutclk                                  |            16.0 |
| fabric_clk                                                              | fabric_clk_p                                      |            25.0 |
| osc125_a                                                                | osc125_a_p                                        |             8.0 |
| osc125_b                                                                | osc125_b_p                                        |             8.0 |
+-------------------------------------------------------------------------+---------------------------------------------------+-----------------+


3. Detailed Reports
-------------------

3.1 By Hierarchy
----------------

+--------------------------------------------------------------------------------------+-----------+
| Name                                                                                 | Power (W) |
+--------------------------------------------------------------------------------------+-----------+
| fc7_top                                                                              |     0.987 |
|   dbg_hub                                                                            |     0.002 |
|     inst                                                                             |     0.002 |
|       CORE_XSDB.UUT_MASTER                                                           |     0.001 |
|         U_ICON_INTERFACE                                                             |     0.001 |
|           U_CMD1                                                                     |    <0.001 |
|           U_CMD2                                                                     |    <0.001 |
|           U_CMD3                                                                     |    <0.001 |
|           U_CMD4                                                                     |    <0.001 |
|           U_CMD5                                                                     |    <0.001 |
|           U_CMD6_RD                                                                  |    <0.001 |
|             U_RD_FIFO                                                                |    <0.001 |
|               SUBCORE_FIFO.xsdbm_v2_0_2_rdfifo_inst                                  |    <0.001 |
|                 inst_fifo_gen                                                        |    <0.001 |
|                   gconvfifo.rf                                                       |    <0.001 |
|                     grf.rf                                                           |    <0.001 |
|                       gntv_or_sync_fifo.gcx.clkx                                     |    <0.001 |
|                         gnxpm_cdc.gsync_stage[1].rd_stg_inst                         |    <0.001 |
|                         gnxpm_cdc.gsync_stage[1].wr_stg_inst                         |    <0.001 |
|                         gnxpm_cdc.gsync_stage[2].rd_stg_inst                         |    <0.001 |
|                         gnxpm_cdc.gsync_stage[2].wr_stg_inst                         |    <0.001 |
|                       gntv_or_sync_fifo.gl0.rd                                       |    <0.001 |
|                         gr1.gr1_int.rfwft                                            |    <0.001 |
|                         gras.rsts                                                    |    <0.001 |
|                         rpntr                                                        |    <0.001 |
|                       gntv_or_sync_fifo.gl0.wr                                       |    <0.001 |
|                         gwas.wsts                                                    |    <0.001 |
|                         wpntr                                                        |    <0.001 |
|                       gntv_or_sync_fifo.mem                                          |    <0.001 |
|                         gdm.dm_gen.dm                                                |    <0.001 |
|                           RAM_reg_0_15_0_5                                           |    <0.001 |
|                           RAM_reg_0_15_12_15                                         |    <0.001 |
|                           RAM_reg_0_15_6_11                                          |    <0.001 |
|                       rstblk                                                         |    <0.001 |
|                         ngwrdrst.grst.g7serrst.gwrrd_rst_sync_stage[1].rrst_inst     |    <0.001 |
|                         ngwrdrst.grst.g7serrst.gwrrd_rst_sync_stage[1].wrst_inst     |    <0.001 |
|                         ngwrdrst.grst.g7serrst.gwrrd_rst_sync_stage[2].rrst_inst     |    <0.001 |
|                         ngwrdrst.grst.g7serrst.gwrrd_rst_sync_stage[2].wrst_inst     |    <0.001 |
|           U_CMD6_WR                                                                  |    <0.001 |
|             U_WR_FIFO                                                                |    <0.001 |
|               SUBCORE_FIFO.xsdbm_v2_0_2_wrfifo_inst                                  |    <0.001 |
|                 inst_fifo_gen                                                        |    <0.001 |
|                   gconvfifo.rf                                                       |    <0.001 |
|                     grf.rf                                                           |    <0.001 |
|                       gntv_or_sync_fifo.gcx.clkx                                     |    <0.001 |
|                         gnxpm_cdc.gsync_stage[1].rd_stg_inst                         |    <0.001 |
|                         gnxpm_cdc.gsync_stage[1].wr_stg_inst                         |    <0.001 |
|                         gnxpm_cdc.gsync_stage[2].rd_stg_inst                         |    <0.001 |
|                         gnxpm_cdc.gsync_stage[2].wr_stg_inst                         |    <0.001 |
|                       gntv_or_sync_fifo.gl0.rd                                       |    <0.001 |
|                         gras.rsts                                                    |    <0.001 |
|                         rpntr                                                        |    <0.001 |
|                       gntv_or_sync_fifo.gl0.wr                                       |    <0.001 |
|                         gwas.wsts                                                    |    <0.001 |
|                         wpntr                                                        |    <0.001 |
|                       gntv_or_sync_fifo.mem                                          |    <0.001 |
|                         gdm.dm_gen.dm                                                |    <0.001 |
|                           RAM_reg_0_15_0_5                                           |    <0.001 |
|                           RAM_reg_0_15_12_15                                         |    <0.001 |
|                           RAM_reg_0_15_6_11                                          |    <0.001 |
|                       rstblk                                                         |    <0.001 |
|                         ngwrdrst.grst.g7serrst.gwrrd_rst_sync_stage[1].rrst_inst     |    <0.001 |
|                         ngwrdrst.grst.g7serrst.gwrrd_rst_sync_stage[1].wrst_inst     |    <0.001 |
|                         ngwrdrst.grst.g7serrst.gwrrd_rst_sync_stage[2].rrst_inst     |    <0.001 |
|                         ngwrdrst.grst.g7serrst.gwrrd_rst_sync_stage[2].wrst_inst     |    <0.001 |
|           U_CMD7_CTL                                                                 |    <0.001 |
|           U_CMD7_STAT                                                                |    <0.001 |
|           U_STATIC_STATUS                                                            |    <0.001 |
|         U_XSDB_ADDRESS_CONTROLLER                                                    |    <0.001 |
|         U_XSDB_BURST_WD_LEN_CONTROLLER                                               |    <0.001 |
|         U_XSDB_BUS_CONTROLLER                                                        |    <0.001 |
|           U_RD_ABORT_FLAG                                                            |    <0.001 |
|           U_RD_REQ_FLAG                                                              |    <0.001 |
|           U_TIMER                                                                    |    <0.001 |
|         U_XSDB_BUS_MSTR2SL_PORT_IFACE                                                |    <0.001 |
|           U_RD_DIN_BUS_MUX                                                           |    <0.001 |
|       CORE_XSDB.U_ICON                                                               |    <0.001 |
|         U_CMD                                                                        |    <0.001 |
|         U_STAT                                                                       |    <0.001 |
|         U_SYNC                                                                       |    <0.001 |
|       SWITCH_N_EXT_BSCAN.bscan_inst                                                  |    <0.001 |
|       SWITCH_N_EXT_BSCAN.bscan_switch                                                |    <0.001 |
|   fpga_config_data_IOBUF[0]_inst                                                     |     0.002 |
|   fpga_config_data_IOBUF[10]_inst                                                    |     0.002 |
|   fpga_config_data_IOBUF[11]_inst                                                    |     0.002 |
|   fpga_config_data_IOBUF[12]_inst                                                    |     0.002 |
|   fpga_config_data_IOBUF[13]_inst                                                    |     0.002 |
|   fpga_config_data_IOBUF[14]_inst                                                    |     0.002 |
|   fpga_config_data_IOBUF[15]_inst                                                    |     0.002 |
|   fpga_config_data_IOBUF[1]_inst                                                     |     0.002 |
|   fpga_config_data_IOBUF[2]_inst                                                     |     0.002 |
|   fpga_config_data_IOBUF[3]_inst                                                     |     0.002 |
|   fpga_config_data_IOBUF[4]_inst                                                     |     0.002 |
|   fpga_config_data_IOBUF[5]_inst                                                     |     0.002 |
|   fpga_config_data_IOBUF[6]_inst                                                     |     0.002 |
|   fpga_config_data_IOBUF[7]_inst                                                     |     0.002 |
|   fpga_config_data_IOBUF[8]_inst                                                     |     0.002 |
|   fpga_config_data_IOBUF[9]_inst                                                     |     0.002 |
|   sys                                                                                |     0.493 |
|     clocks                                                                           |     0.099 |
|       clkdiv                                                                         |    <0.001 |
|       syspll_inst                                                                    |     0.098 |
|     eth                                                                              |     0.342 |
|       mac                                                                            |     0.005 |
|       phy                                                                            |     0.230 |
|         gig_eth_pcs_pma_core                                                         |     0.001 |
|         transceiver_inst                                                             |     0.229 |
|           gtwizard_inst                                                              |     0.228 |
|             gt0_rx_recclk_mon_i                                                      |     0.001 |
|             gt0_rxresetfsm_i                                                         |     0.002 |
|             gt0_txresetfsm_i                                                         |     0.002 |
|             gtwizard_v2_3_gbe_i                                                      |     0.222 |
|               gt0_gtwizard_v2_3_gbe_i                                                |     0.222 |
|           reclock_encommaalign                                                       |    <0.001 |
|           reclock_rxreset                                                            |    <0.001 |
|           reclock_txreset                                                            |    <0.001 |
|           sync_block_data_valid                                                      |    <0.001 |
|     i2c_eep                                                                          |    <0.001 |
|     i2c_m                                                                            |    <0.001 |
|       bufgen[0].scl_buf                                                              |     0.000 |
|       bufgen[0].sda_buf                                                              |     0.000 |
|       core                                                                           |    <0.001 |
|         u1                                                                           |    <0.001 |
|         u2                                                                           |    <0.001 |
|     icap_if                                                                          |    <0.001 |
|       confFsm                                                                        |    <0.001 |
|       icapInterface                                                                  |    <0.001 |
|     ip_mac                                                                           |    <0.001 |
|     ipb                                                                              |     0.039 |
|       arb_gen.arb                                                                    |    <0.001 |
|       trans                                                                          |     0.004 |
|         cfg__0                                                                       |    <0.001 |
|         iface                                                                        |    <0.001 |
|         sm                                                                           |     0.003 |
|       udp_if                                                                         |     0.035 |
|         ARP                                                                          |     0.001 |
|         IPADDR                                                                       |    <0.001 |
|         RARP_block                                                                   |     0.002 |
|         clock_crossing_if                                                            |    <0.001 |
|         internal_ram                                                                 |     0.003 |
|         internal_ram_selector                                                        |    <0.001 |
|         internal_ram_shim                                                            |    <0.001 |
|         ipbus_rx_ram                                                                 |     0.007 |
|         ipbus_tx_ram                                                                 |     0.005 |
|         payload                                                                      |     0.001 |
|         ping                                                                         |    <0.001 |
|         resend                                                                       |    <0.001 |
|         rx_byte_sum                                                                  |    <0.001 |
|         rx_packet_parser                                                             |     0.003 |
|         rx_ram_mux                                                                   |    <0.001 |
|         rx_ram_selector                                                              |    <0.001 |
|         rx_reset_block                                                               |    <0.001 |
|         rx_transactor                                                                |    <0.001 |
|         status                                                                       |     0.001 |
|         status_buffer                                                                |     0.003 |
|         tx_byte_sum                                                                  |    <0.001 |
|         tx_main                                                                      |     0.002 |
|         tx_ram_selector                                                              |    <0.001 |
|         tx_transactor                                                                |     0.002 |
|     ipb_fabric                                                                       |    <0.001 |
|     ipb_sys_regs                                                                     |    <0.001 |
|     spi                                                                              |    <0.001 |
|     uc_if                                                                            |     0.012 |
|       spi                                                                            |     0.002 |
|       uc_pipe_if                                                                     |     0.006 |
|         ram_ipbus_to_pipe                                                            |     0.003 |
|         ram_pipe_to_ipbus                                                            |     0.001 |
|       uc_trans                                                                       |     0.004 |
|         ram_in                                                                       |     0.002 |
|         ram_out                                                                      |     0.003 |
|   usr                                                                                |     0.405 |
|     cdce_synch                                                                       |    <0.001 |
|     ctrl_regs_inst                                                                   |     0.001 |
|     gbt_wrapper_0                                                                    |     0.289 |
|       dataGenEn_gen.gbtBank2_pattGen                                                 |    <0.001 |
|       gbtBank                                                                        |     0.286 |
|         gbtRx_param_package_src_gen.gbtRx_gen[1].gbtRx                               |     0.004 |
|           decoder                                                                    |    <0.001 |
|             gbtFrame_gen.reedSolomonDecoder0to50                                     |    <0.001 |
|               syndromes                                                              |    <0.001 |
|             gbtFrame_gen.reedSolomonDecoder60to119                                   |    <0.001 |
|               syndromes                                                              |    <0.001 |
|           descrambler                                                                |    <0.001 |
|             gbtFrameOrWideBus_gen.gbtRxDescrambler84bit_gen[0].gbtRxDescrambler21bit |    <0.001 |
|             gbtFrameOrWideBus_gen.gbtRxDescrambler84bit_gen[1].gbtRxDescrambler21bit |    <0.001 |
|             gbtFrameOrWideBus_gen.gbtRxDescrambler84bit_gen[2].gbtRxDescrambler21bit |    <0.001 |
|             gbtFrameOrWideBus_gen.gbtRxDescrambler84bit_gen[3].gbtRxDescrambler21bit |    <0.001 |
|           frameAligner                                                               |    <0.001 |
|             patternSearch                                                            |    <0.001 |
|             rightShifter                                                             |    <0.001 |
|             rxBitSlipCounter                                                         |    <0.001 |
|             writeAddressCtrl                                                         |    <0.001 |
|           rxGearbox                                                                  |     0.003 |
|             rxGearboxStd_gen.rxGearboxStd                                            |     0.003 |
|               dpram                                                                  |     0.003 |
|                 dpram                                                                |     0.003 |
|                   U0                                                                 |     0.003 |
|                     inst_blk_mem_gen                                                 |     0.003 |
|                       gnbram.gnativebmg.native_blk_mem_gen                           |     0.003 |
|                         valid.cstr                                                   |     0.003 |
|                           ramloop[0].ram.r                                           |    <0.001 |
|                             prim_noinit.ram                                          |    <0.001 |
|                           ramloop[1].ram.r                                           |     0.001 |
|                             prim_noinit.ram                                          |     0.001 |
|                           ramloop[2].ram.r                                           |     0.001 |
|                             prim_noinit.ram                                          |     0.001 |
|               readControl                                                            |    <0.001 |
|           status                                                                     |    <0.001 |
|         gbtTx_param_pacakge_src_gen.gbtTx_gen[1].gbtTx                               |     0.004 |
|           scrambler                                                                  |    <0.001 |
|             gbtFrameOrWideBus_gen.gbtTxScrambler84bit_gen[0].gbtTxScrambler21bit     |    <0.001 |
|             gbtFrameOrWideBus_gen.gbtTxScrambler84bit_gen[1].gbtTxScrambler21bit     |    <0.001 |
|             gbtFrameOrWideBus_gen.gbtTxScrambler84bit_gen[2].gbtTxScrambler21bit     |    <0.001 |
|             gbtFrameOrWideBus_gen.gbtTxScrambler84bit_gen[3].gbtTxScrambler21bit     |    <0.001 |
|           txGearbox                                                                  |     0.004 |
|             txGearboxStd_gen.txGearboxStd                                            |     0.004 |
|               dpram                                                                  |     0.004 |
|                 dpram                                                                |     0.004 |
|                   U0                                                                 |     0.004 |
|                     inst_blk_mem_gen                                                 |     0.004 |
|                       gnbram.gnativebmg.native_blk_mem_gen                           |     0.004 |
|                         valid.cstr                                                   |     0.004 |
|                           ramloop[0].ram.r                                           |     0.001 |
|                             prim_noinit.ram                                          |     0.001 |
|                           ramloop[1].ram.r                                           |     0.001 |
|                             prim_noinit.ram                                          |     0.001 |
|                           ramloop[2].ram.r                                           |     0.001 |
|                             prim_noinit.ram                                          |     0.001 |
|               readWriteControl                                                       |    <0.001 |
|         mgt_param_package_src_gen.mgt                                                |     0.278 |
|           mgtStd_gen.mgtStd                                                          |     0.278 |
|             gtxStd_gen[1].xlx_k7v7_mgt_std_i                                         |     0.278 |
|               U0                                                                     |     0.278 |
|                 gt0_rx_auto_phase_align_i                                            |    <0.001 |
|                   sync_DLYSRESETDONE                                                 |    <0.001 |
|                   sync_PHALIGNDONE                                                   |    <0.001 |
|                 gt0_rxresetfsm_i                                                     |    <0.001 |
|                   sync_CPLLLOCK                                                      |    <0.001 |
|                   sync_RXRESETDONE                                                   |    <0.001 |
|                   sync_data_valid                                                    |    <0.001 |
|                   sync_mmcm_lock_reclocked                                           |    <0.001 |
|                   sync_run_phase_alignment_int                                       |    <0.001 |
|                   sync_rx_fsm_reset_done_int                                         |     0.000 |
|                   sync_time_out_wait_bypass                                          |    <0.001 |
|                 gt0_tx_manual_phase_i                                                |    <0.001 |
|                   cdc[0].sync_TXDLYSRESETDONE                                        |    <0.001 |
|                   cdc[0].sync_TXPHALIGNDONE                                          |    <0.001 |
|                   cdc[0].sync_TXPHINITDONE                                           |    <0.001 |
|                 gt0_txresetfsm_i                                                     |    <0.001 |
|                   sync_CPLLLOCK                                                      |    <0.001 |
|                   sync_TXRESETDONE                                                   |    <0.001 |
|                   sync_mmcm_lock_reclocked                                           |    <0.001 |
|                   sync_run_phase_alignment_int                                       |    <0.001 |
|                   sync_time_out_wait_bypass                                          |    <0.001 |
|                   sync_tx_fsm_reset_done_int                                         |    <0.001 |
|                 xlx_k7v7_mgt_ip_i                                                    |     0.276 |
|                   cpll_railing0_i                                                    |    <0.001 |
|                   gt0_xlx_k7v7_mgt_ip_i                                              |     0.276 |
|       gbtBank_rst_gen[1].gbtBank_gbtBankRst                                          |     0.002 |
|     generalReset                                                                     |    <0.001 |
|     rxIla                                                                            |     0.004 |
|       U0                                                                             |     0.004 |
|         ila_core_inst                                                                |     0.004 |
|           ila_trace_memory_inst                                                      |     0.002 |
|             SUBCORE_RAM_BLK_MEM_1.trace_block_memory                                 |     0.002 |
|               inst_blk_mem_gen                                                       |     0.002 |
|                 gnbram.gnativebmg.native_blk_mem_gen                                 |     0.002 |
|                   valid.cstr                                                         |     0.002 |
|                     ramloop[0].ram.r                                                 |    <0.001 |
|                       prim_noinit.ram                                                |    <0.001 |
|                     ramloop[1].ram.r                                                 |    <0.001 |
|                       prim_noinit.ram                                                |    <0.001 |
|                     ramloop[2].ram.r                                                 |    <0.001 |
|                       prim_noinit.ram                                                |    <0.001 |
|                     ramloop[3].ram.r                                                 |    <0.001 |
|                       prim_noinit.ram                                                |    <0.001 |
|           u_ila_cap_ctrl                                                             |    <0.001 |
|             U_CDONE                                                                  |    <0.001 |
|             U_NS0                                                                    |    <0.001 |
|             U_NS1                                                                    |    <0.001 |
|             u_cap_addrgen                                                            |    <0.001 |
|               U_CMPRESET                                                             |    <0.001 |
|               u_cap_sample_counter                                                   |    <0.001 |
|                 U_SCE                                                                |    <0.001 |
|                 U_SCMPCE                                                             |    <0.001 |
|                 U_SCRST                                                              |    <0.001 |
|                 u_scnt_cmp                                                           |    <0.001 |
|                   allx_typeA_match_detection.ltlib_v1_0_0_allx_typeA_inst            |    <0.001 |
|                     DUT                                                              |    <0.001 |
|                       I_WHOLE_SLICE.G_SLICE_IDX[0].U_ALL_SRL_SLICE                   |    <0.001 |
|                         u_srlA                                                       |    <0.001 |
|                         u_srlB                                                       |    <0.001 |
|                         u_srlC                                                       |    <0.001 |
|                         u_srlD                                                       |    <0.001 |
|                       I_WHOLE_SLICE.G_SLICE_IDX[1].U_ALL_SRL_SLICE                   |    <0.001 |
|                         u_srlA                                                       |    <0.001 |
|                         u_srlB                                                       |    <0.001 |
|                         u_srlC                                                       |    <0.001 |
|                         u_srlD                                                       |    <0.001 |
|               u_cap_window_counter                                                   |    <0.001 |
|                 U_WCE                                                                |    <0.001 |
|                 U_WHCMPCE                                                            |    <0.001 |
|                 U_WLCMPCE                                                            |    <0.001 |
|                 u_wcnt_hcmp                                                          |    <0.001 |
|                   allx_typeA_match_detection.ltlib_v1_0_0_allx_typeA_inst            |    <0.001 |
|                     DUT                                                              |    <0.001 |
|                       I_WHOLE_SLICE.G_SLICE_IDX[0].U_ALL_SRL_SLICE                   |    <0.001 |
|                         u_srlA                                                       |    <0.001 |
|                         u_srlB                                                       |    <0.001 |
|                         u_srlC                                                       |    <0.001 |
|                         u_srlD                                                       |    <0.001 |
|                       I_WHOLE_SLICE.G_SLICE_IDX[1].U_ALL_SRL_SLICE                   |    <0.001 |
|                         u_srlA                                                       |    <0.001 |
|                         u_srlB                                                       |    <0.001 |
|                         u_srlC                                                       |    <0.001 |
|                         u_srlD                                                       |    <0.001 |
|                 u_wcnt_lcmp                                                          |    <0.001 |
|                   allx_typeA_match_detection.ltlib_v1_0_0_allx_typeA_inst            |    <0.001 |
|                     DUT                                                              |    <0.001 |
|                       I_WHOLE_SLICE.G_SLICE_IDX[0].U_ALL_SRL_SLICE                   |    <0.001 |
|                         u_srlA                                                       |    <0.001 |
|                         u_srlB                                                       |    <0.001 |
|                         u_srlC                                                       |    <0.001 |
|                         u_srlD                                                       |    <0.001 |
|                       I_WHOLE_SLICE.G_SLICE_IDX[1].U_ALL_SRL_SLICE                   |    <0.001 |
|                         u_srlA                                                       |    <0.001 |
|                         u_srlB                                                       |    <0.001 |
|                         u_srlC                                                       |    <0.001 |
|                         u_srlD                                                       |    <0.001 |
|           u_ila_regs                                                                 |     0.001 |
|             MU_SRL[0].mu_srl_reg                                                     |    <0.001 |
|             MU_SRL[1].mu_srl_reg                                                     |    <0.001 |
|             MU_SRL[2].mu_srl_reg                                                     |    <0.001 |
|             MU_SRL[3].mu_srl_reg                                                     |    <0.001 |
|             TC_SRL[0].tc_srl_reg                                                     |    <0.001 |
|             U_XSDB_SLAVE                                                             |    <0.001 |
|             reg_15                                                                   |    <0.001 |
|               I_EN_CTL_EQ1.U_CTL                                                     |    <0.001 |
|             reg_16                                                                   |    <0.001 |
|               I_EN_CTL_EQ1.U_CTL                                                     |    <0.001 |
|             reg_17                                                                   |    <0.001 |
|               I_EN_CTL_EQ1.U_CTL                                                     |    <0.001 |
|             reg_18                                                                   |    <0.001 |
|               I_EN_CTL_EQ1.U_CTL                                                     |    <0.001 |
|             reg_19                                                                   |    <0.001 |
|               I_EN_CTL_EQ1.U_CTL                                                     |    <0.001 |
|             reg_1a                                                                   |    <0.001 |
|               I_EN_CTL_EQ1.U_CTL                                                     |    <0.001 |
|             reg_6                                                                    |    <0.001 |
|               I_EN_CTL_EQ1.U_CTL                                                     |    <0.001 |
|             reg_7                                                                    |    <0.001 |
|               I_EN_CTL_EQ1.U_CTL                                                     |    <0.001 |
|             reg_8                                                                    |    <0.001 |
|               I_EN_STAT_EQ1.U_STAT                                                   |    <0.001 |
|             reg_80                                                                   |    <0.001 |
|               I_EN_CTL_EQ1.U_CTL                                                     |    <0.001 |
|             reg_81                                                                   |    <0.001 |
|               I_EN_CTL_EQ1.U_CTL                                                     |    <0.001 |
|             reg_82                                                                   |    <0.001 |
|               I_EN_CTL_EQ1.U_CTL                                                     |    <0.001 |
|             reg_83                                                                   |    <0.001 |
|               I_EN_CTL_EQ1.U_CTL                                                     |    <0.001 |
|             reg_84                                                                   |    <0.001 |
|               I_EN_CTL_EQ1.U_CTL                                                     |    <0.001 |
|             reg_85                                                                   |    <0.001 |
|               I_EN_CTL_EQ1.U_CTL                                                     |    <0.001 |
|             reg_887                                                                  |    <0.001 |
|               I_EN_STAT_EQ1.U_STAT                                                   |    <0.001 |
|             reg_88d                                                                  |    <0.001 |
|               I_EN_STAT_EQ1.U_STAT                                                   |    <0.001 |
|             reg_890                                                                  |    <0.001 |
|               I_EN_STAT_EQ1.U_STAT                                                   |    <0.001 |
|             reg_9                                                                    |    <0.001 |
|               I_EN_STAT_EQ1.U_STAT                                                   |    <0.001 |
|             reg_srl_fff                                                              |    <0.001 |
|             reg_stream_ffd                                                           |    <0.001 |
|               I_EN_CTL_EQ1.U_CTL                                                     |    <0.001 |
|             reg_stream_ffe                                                           |    <0.001 |
|               I_EN_STAT_EQ1.U_STAT                                                   |    <0.001 |
|           u_ila_reset_ctrl                                                           |    <0.001 |
|             arm_detection_inst                                                       |    <0.001 |
|             asyncrounous_transfer.arm_in_transfer_inst                               |    <0.001 |
|             asyncrounous_transfer.arm_out_transfer_inst                              |    <0.001 |
|             asyncrounous_transfer.halt_in_transfer_inst                              |    <0.001 |
|             asyncrounous_transfer.halt_out_transfer_inst                             |    <0.001 |
|             halt_detection_inst                                                      |    <0.001 |
|           u_trig                                                                     |    <0.001 |
|             N_DDR_TC.N_DDR_TC_INST[0].U_TC                                           |    <0.001 |
|               allx_typeA_match_detection.ltlib_v1_0_0_allx_typeA_inst                |    <0.001 |
|                 DUT                                                                  |    <0.001 |
|                   I_WHOLE_SLICE.G_SLICE_IDX[0].U_ALL_SRL_SLICE                       |    <0.001 |
|                     u_srlA                                                           |    <0.001 |
|                     u_srlB                                                           |    <0.001 |
|                     u_srlC                                                           |    <0.001 |
|                     u_srlD                                                           |    <0.001 |
|             U_TM                                                                     |    <0.001 |
|               N_DDR_MODE.G_NMU[0].U_M                                                |    <0.001 |
|                 allx_typeA_match_detection.ltlib_v1_0_0_allx_typeA_inst              |    <0.001 |
|                   DUT                                                                |    <0.001 |
|                     I_WHOLE_SLICE.G_SLICE_IDX[0].U_ALL_SRL_SLICE                     |    <0.001 |
|                       u_srlA                                                         |    <0.001 |
|                       u_srlB                                                         |    <0.001 |
|                       u_srlC                                                         |    <0.001 |
|                       u_srlD                                                         |    <0.001 |
|                     I_WHOLE_SLICE.G_SLICE_IDX[10].U_ALL_SRL_SLICE                    |    <0.001 |
|                       u_srlA                                                         |    <0.001 |
|                       u_srlB                                                         |    <0.001 |
|                       u_srlC                                                         |    <0.001 |
|                       u_srlD                                                         |    <0.001 |
|                     I_WHOLE_SLICE.G_SLICE_IDX[1].U_ALL_SRL_SLICE                     |    <0.001 |
|                       u_srlA                                                         |    <0.001 |
|                       u_srlB                                                         |    <0.001 |
|                       u_srlC                                                         |    <0.001 |
|                       u_srlD                                                         |    <0.001 |
|                     I_WHOLE_SLICE.G_SLICE_IDX[2].U_ALL_SRL_SLICE                     |    <0.001 |
|                       u_srlA                                                         |    <0.001 |
|                       u_srlB                                                         |    <0.001 |
|                       u_srlC                                                         |    <0.001 |
|                       u_srlD                                                         |    <0.001 |
|                     I_WHOLE_SLICE.G_SLICE_IDX[3].U_ALL_SRL_SLICE                     |    <0.001 |
|                       u_srlA                                                         |    <0.001 |
|                       u_srlB                                                         |    <0.001 |
|                       u_srlC                                                         |    <0.001 |
|                       u_srlD                                                         |    <0.001 |
|                     I_WHOLE_SLICE.G_SLICE_IDX[4].U_ALL_SRL_SLICE                     |    <0.001 |
|                       u_srlA                                                         |    <0.001 |
|                       u_srlB                                                         |    <0.001 |
|                       u_srlC                                                         |    <0.001 |
|                       u_srlD                                                         |    <0.001 |
|                     I_WHOLE_SLICE.G_SLICE_IDX[5].U_ALL_SRL_SLICE                     |    <0.001 |
|                       u_srlA                                                         |    <0.001 |
|                       u_srlB                                                         |    <0.001 |
|                       u_srlC                                                         |    <0.001 |
|                       u_srlD                                                         |    <0.001 |
|                     I_WHOLE_SLICE.G_SLICE_IDX[6].U_ALL_SRL_SLICE                     |    <0.001 |
|                       u_srlA                                                         |    <0.001 |
|                       u_srlB                                                         |    <0.001 |
|                       u_srlC                                                         |    <0.001 |
|                       u_srlD                                                         |    <0.001 |
|                     I_WHOLE_SLICE.G_SLICE_IDX[7].U_ALL_SRL_SLICE                     |    <0.001 |
|                       u_srlA                                                         |    <0.001 |
|                       u_srlB                                                         |    <0.001 |
|                       u_srlC                                                         |    <0.001 |
|                       u_srlD                                                         |    <0.001 |
|                     I_WHOLE_SLICE.G_SLICE_IDX[8].U_ALL_SRL_SLICE                     |    <0.001 |
|                       u_srlA                                                         |    <0.001 |
|                       u_srlB                                                         |    <0.001 |
|                       u_srlC                                                         |    <0.001 |
|                       u_srlD                                                         |    <0.001 |
|                     I_WHOLE_SLICE.G_SLICE_IDX[9].U_ALL_SRL_SLICE                     |    <0.001 |
|                       u_srlA                                                         |    <0.001 |
|                       u_srlB                                                         |    <0.001 |
|                       u_srlC                                                         |    <0.001 |
|                       u_srlD                                                         |    <0.001 |
|               N_DDR_MODE.G_NMU[1].U_M                                                |    <0.001 |
|                 allx_typeA_match_detection.ltlib_v1_0_0_allx_typeA_inst              |    <0.001 |
|                   DUT                                                                |    <0.001 |
|                     I_WHOLE_SLICE.G_SLICE_IDX[0].U_ALL_SRL_SLICE                     |    <0.001 |
|                       u_srlA                                                         |    <0.001 |
|                       u_srlB                                                         |    <0.001 |
|                       u_srlC                                                         |    <0.001 |
|                       u_srlD                                                         |    <0.001 |
|                     I_WHOLE_SLICE.G_SLICE_IDX[1].U_ALL_SRL_SLICE                     |    <0.001 |
|                       u_srlA                                                         |    <0.001 |
|                       u_srlB                                                         |    <0.001 |
|                       u_srlC                                                         |    <0.001 |
|                       u_srlD                                                         |    <0.001 |
|                     I_WHOLE_SLICE.G_SLICE_IDX[2].U_ALL_SRL_SLICE                     |    <0.001 |
|                       u_srlA                                                         |    <0.001 |
|                       u_srlB                                                         |    <0.001 |
|                       u_srlC                                                         |    <0.001 |
|                       u_srlD                                                         |    <0.001 |
|                     I_WHOLE_SLICE.G_SLICE_IDX[3].U_ALL_SRL_SLICE                     |    <0.001 |
|                       u_srlA                                                         |    <0.001 |
|                       u_srlB                                                         |    <0.001 |
|                       u_srlC                                                         |    <0.001 |
|                       u_srlD                                                         |    <0.001 |
|               N_DDR_MODE.G_NMU[2].U_M                                                |    <0.001 |
|                 allx_typeA_match_detection.ltlib_v1_0_0_allx_typeA_inst              |    <0.001 |
|                   DUT                                                                |    <0.001 |
|                     I_WHOLE_SLICE.G_SLICE_IDX[0].U_ALL_SRL_SLICE                     |    <0.001 |
|                       u_srlA                                                         |    <0.001 |
|                       u_srlB                                                         |    <0.001 |
|                       u_srlC                                                         |    <0.001 |
|                       u_srlD                                                         |    <0.001 |
|               N_DDR_MODE.G_NMU[3].U_M                                                |    <0.001 |
|                 allx_typeA_match_detection.ltlib_v1_0_0_allx_typeA_inst              |    <0.001 |
|                   DUT                                                                |    <0.001 |
|                     I_WHOLE_SLICE.G_SLICE_IDX[0].U_ALL_SRL_SLICE                     |    <0.001 |
|                       u_srlA                                                         |    <0.001 |
|                       u_srlB                                                         |    <0.001 |
|                       u_srlC                                                         |    <0.001 |
|                       u_srlD                                                         |    <0.001 |
|           xsdb_memory_read_inst                                                      |    <0.001 |
|     stat_regs_inst                                                                   |    <0.001 |
|     txILa                                                                            |     0.004 |
|       U0                                                                             |     0.004 |
|         ila_core_inst                                                                |     0.004 |
|           ila_trace_memory_inst                                                      |     0.002 |
|             SUBCORE_RAM_BLK_MEM_1.trace_block_memory                                 |     0.002 |
|               inst_blk_mem_gen                                                       |     0.002 |
|                 gnbram.gnativebmg.native_blk_mem_gen                                 |     0.002 |
|                   valid.cstr                                                         |     0.002 |
|                     ramloop[0].ram.r                                                 |    <0.001 |
|                       prim_noinit.ram                                                |    <0.001 |
|                     ramloop[1].ram.r                                                 |    <0.001 |
|                       prim_noinit.ram                                                |    <0.001 |
|                     ramloop[2].ram.r                                                 |    <0.001 |
|                       prim_noinit.ram                                                |    <0.001 |
|                     ramloop[3].ram.r                                                 |    <0.001 |
|                       prim_noinit.ram                                                |    <0.001 |
|           u_ila_cap_ctrl                                                             |    <0.001 |
|             U_CDONE                                                                  |    <0.001 |
|             U_NS0                                                                    |    <0.001 |
|             U_NS1                                                                    |    <0.001 |
|             u_cap_addrgen                                                            |    <0.001 |
|               U_CMPRESET                                                             |    <0.001 |
|               u_cap_sample_counter                                                   |    <0.001 |
|                 U_SCE                                                                |    <0.001 |
|                 U_SCMPCE                                                             |    <0.001 |
|                 U_SCRST                                                              |    <0.001 |
|                 u_scnt_cmp                                                           |    <0.001 |
|                   allx_typeA_match_detection.ltlib_v1_0_0_allx_typeA_inst            |    <0.001 |
|                     DUT                                                              |    <0.001 |
|                       I_WHOLE_SLICE.G_SLICE_IDX[0].U_ALL_SRL_SLICE                   |    <0.001 |
|                         u_srlA                                                       |    <0.001 |
|                         u_srlB                                                       |    <0.001 |
|                         u_srlC                                                       |    <0.001 |
|                         u_srlD                                                       |    <0.001 |
|                       I_WHOLE_SLICE.G_SLICE_IDX[1].U_ALL_SRL_SLICE                   |    <0.001 |
|                         u_srlA                                                       |    <0.001 |
|                         u_srlB                                                       |    <0.001 |
|                         u_srlC                                                       |    <0.001 |
|                         u_srlD                                                       |    <0.001 |
|               u_cap_window_counter                                                   |    <0.001 |
|                 U_WCE                                                                |    <0.001 |
|                 U_WHCMPCE                                                            |    <0.001 |
|                 U_WLCMPCE                                                            |    <0.001 |
|                 u_wcnt_hcmp                                                          |    <0.001 |
|                   allx_typeA_match_detection.ltlib_v1_0_0_allx_typeA_inst            |    <0.001 |
|                     DUT                                                              |    <0.001 |
|                       I_WHOLE_SLICE.G_SLICE_IDX[0].U_ALL_SRL_SLICE                   |    <0.001 |
|                         u_srlA                                                       |    <0.001 |
|                         u_srlB                                                       |    <0.001 |
|                         u_srlC                                                       |    <0.001 |
|                         u_srlD                                                       |    <0.001 |
|                       I_WHOLE_SLICE.G_SLICE_IDX[1].U_ALL_SRL_SLICE                   |    <0.001 |
|                         u_srlA                                                       |    <0.001 |
|                         u_srlB                                                       |    <0.001 |
|                         u_srlC                                                       |    <0.001 |
|                         u_srlD                                                       |    <0.001 |
|                 u_wcnt_lcmp                                                          |    <0.001 |
|                   allx_typeA_match_detection.ltlib_v1_0_0_allx_typeA_inst            |    <0.001 |
|                     DUT                                                              |    <0.001 |
|                       I_WHOLE_SLICE.G_SLICE_IDX[0].U_ALL_SRL_SLICE                   |    <0.001 |
|                         u_srlA                                                       |    <0.001 |
|                         u_srlB                                                       |    <0.001 |
|                         u_srlC                                                       |    <0.001 |
|                         u_srlD                                                       |    <0.001 |
|                       I_WHOLE_SLICE.G_SLICE_IDX[1].U_ALL_SRL_SLICE                   |    <0.001 |
|                         u_srlA                                                       |    <0.001 |
|                         u_srlB                                                       |    <0.001 |
|                         u_srlC                                                       |    <0.001 |
|                         u_srlD                                                       |    <0.001 |
|           u_ila_regs                                                                 |     0.001 |
|             MU_SRL[0].mu_srl_reg                                                     |    <0.001 |
|             MU_SRL[1].mu_srl_reg                                                     |    <0.001 |
|             MU_SRL[2].mu_srl_reg                                                     |    <0.001 |
|             MU_SRL[3].mu_srl_reg                                                     |    <0.001 |
|             TC_SRL[0].tc_srl_reg                                                     |    <0.001 |
|             U_XSDB_SLAVE                                                             |    <0.001 |
|             reg_15                                                                   |    <0.001 |
|               I_EN_CTL_EQ1.U_CTL                                                     |    <0.001 |
|             reg_16                                                                   |    <0.001 |
|               I_EN_CTL_EQ1.U_CTL                                                     |    <0.001 |
|             reg_17                                                                   |    <0.001 |
|               I_EN_CTL_EQ1.U_CTL                                                     |    <0.001 |
|             reg_18                                                                   |    <0.001 |
|               I_EN_CTL_EQ1.U_CTL                                                     |    <0.001 |
|             reg_19                                                                   |    <0.001 |
|               I_EN_CTL_EQ1.U_CTL                                                     |    <0.001 |
|             reg_1a                                                                   |    <0.001 |
|               I_EN_CTL_EQ1.U_CTL                                                     |    <0.001 |
|             reg_6                                                                    |    <0.001 |
|               I_EN_CTL_EQ1.U_CTL                                                     |    <0.001 |
|             reg_7                                                                    |    <0.001 |
|               I_EN_CTL_EQ1.U_CTL                                                     |    <0.001 |
|             reg_8                                                                    |    <0.001 |
|               I_EN_STAT_EQ1.U_STAT                                                   |    <0.001 |
|             reg_80                                                                   |    <0.001 |
|               I_EN_CTL_EQ1.U_CTL                                                     |    <0.001 |
|             reg_81                                                                   |    <0.001 |
|               I_EN_CTL_EQ1.U_CTL                                                     |    <0.001 |
|             reg_82                                                                   |    <0.001 |
|               I_EN_CTL_EQ1.U_CTL                                                     |    <0.001 |
|             reg_83                                                                   |    <0.001 |
|               I_EN_CTL_EQ1.U_CTL                                                     |    <0.001 |
|             reg_84                                                                   |    <0.001 |
|               I_EN_CTL_EQ1.U_CTL                                                     |    <0.001 |
|             reg_85                                                                   |    <0.001 |
|               I_EN_CTL_EQ1.U_CTL                                                     |    <0.001 |
|             reg_887                                                                  |    <0.001 |
|               I_EN_STAT_EQ1.U_STAT                                                   |    <0.001 |
|             reg_88d                                                                  |    <0.001 |
|               I_EN_STAT_EQ1.U_STAT                                                   |    <0.001 |
|             reg_890                                                                  |    <0.001 |
|               I_EN_STAT_EQ1.U_STAT                                                   |    <0.001 |
|             reg_9                                                                    |    <0.001 |
|               I_EN_STAT_EQ1.U_STAT                                                   |    <0.001 |
|             reg_srl_fff                                                              |    <0.001 |
|             reg_stream_ffd                                                           |    <0.001 |
|               I_EN_CTL_EQ1.U_CTL                                                     |    <0.001 |
|             reg_stream_ffe                                                           |    <0.001 |
|               I_EN_STAT_EQ1.U_STAT                                                   |    <0.001 |
|           u_ila_reset_ctrl                                                           |    <0.001 |
|             arm_detection_inst                                                       |    <0.001 |
|             asyncrounous_transfer.arm_in_transfer_inst                               |    <0.001 |
|             asyncrounous_transfer.arm_out_transfer_inst                              |    <0.001 |
|             asyncrounous_transfer.halt_in_transfer_inst                              |    <0.001 |
|             asyncrounous_transfer.halt_out_transfer_inst                             |    <0.001 |
|             halt_detection_inst                                                      |    <0.001 |
|           u_trig                                                                     |    <0.001 |
|             N_DDR_TC.N_DDR_TC_INST[0].U_TC                                           |    <0.001 |
|               allx_typeA_match_detection.ltlib_v1_0_0_allx_typeA_inst                |    <0.001 |
|                 DUT                                                                  |    <0.001 |
|                   I_WHOLE_SLICE.G_SLICE_IDX[0].U_ALL_SRL_SLICE                       |    <0.001 |
|                     u_srlA                                                           |    <0.001 |
|                     u_srlB                                                           |    <0.001 |
|                     u_srlC                                                           |    <0.001 |
|                     u_srlD                                                           |    <0.001 |
|             U_TM                                                                     |    <0.001 |
|               N_DDR_MODE.G_NMU[0].U_M                                                |    <0.001 |
|                 allx_typeA_match_detection.ltlib_v1_0_0_allx_typeA_inst              |    <0.001 |
|                   DUT                                                                |    <0.001 |
|                     I_WHOLE_SLICE.G_SLICE_IDX[0].U_ALL_SRL_SLICE                     |    <0.001 |
|                       u_srlA                                                         |    <0.001 |
|                       u_srlB                                                         |    <0.001 |
|                       u_srlC                                                         |    <0.001 |
|                       u_srlD                                                         |    <0.001 |
|                     I_WHOLE_SLICE.G_SLICE_IDX[10].U_ALL_SRL_SLICE                    |    <0.001 |
|                       u_srlA                                                         |    <0.001 |
|                       u_srlB                                                         |    <0.001 |
|                       u_srlC                                                         |    <0.001 |
|                       u_srlD                                                         |    <0.001 |
|                     I_WHOLE_SLICE.G_SLICE_IDX[1].U_ALL_SRL_SLICE                     |    <0.001 |
|                       u_srlA                                                         |    <0.001 |
|                       u_srlB                                                         |    <0.001 |
|                       u_srlC                                                         |    <0.001 |
|                       u_srlD                                                         |    <0.001 |
|                     I_WHOLE_SLICE.G_SLICE_IDX[2].U_ALL_SRL_SLICE                     |    <0.001 |
|                       u_srlA                                                         |    <0.001 |
|                       u_srlB                                                         |    <0.001 |
|                       u_srlC                                                         |    <0.001 |
|                       u_srlD                                                         |    <0.001 |
|                     I_WHOLE_SLICE.G_SLICE_IDX[3].U_ALL_SRL_SLICE                     |    <0.001 |
|                       u_srlA                                                         |    <0.001 |
|                       u_srlB                                                         |    <0.001 |
|                       u_srlC                                                         |    <0.001 |
|                       u_srlD                                                         |    <0.001 |
|                     I_WHOLE_SLICE.G_SLICE_IDX[4].U_ALL_SRL_SLICE                     |    <0.001 |
|                       u_srlA                                                         |    <0.001 |
|                       u_srlB                                                         |    <0.001 |
|                       u_srlC                                                         |    <0.001 |
|                       u_srlD                                                         |    <0.001 |
|                     I_WHOLE_SLICE.G_SLICE_IDX[5].U_ALL_SRL_SLICE                     |    <0.001 |
|                       u_srlA                                                         |    <0.001 |
|                       u_srlB                                                         |    <0.001 |
|                       u_srlC                                                         |    <0.001 |
|                       u_srlD                                                         |    <0.001 |
|                     I_WHOLE_SLICE.G_SLICE_IDX[6].U_ALL_SRL_SLICE                     |    <0.001 |
|                       u_srlA                                                         |    <0.001 |
|                       u_srlB                                                         |    <0.001 |
|                       u_srlC                                                         |    <0.001 |
|                       u_srlD                                                         |    <0.001 |
|                     I_WHOLE_SLICE.G_SLICE_IDX[7].U_ALL_SRL_SLICE                     |    <0.001 |
|                       u_srlA                                                         |    <0.001 |
|                       u_srlB                                                         |    <0.001 |
|                       u_srlC                                                         |    <0.001 |
|                       u_srlD                                                         |    <0.001 |
|                     I_WHOLE_SLICE.G_SLICE_IDX[8].U_ALL_SRL_SLICE                     |    <0.001 |
|                       u_srlA                                                         |    <0.001 |
|                       u_srlB                                                         |    <0.001 |
|                       u_srlC                                                         |    <0.001 |
|                       u_srlD                                                         |    <0.001 |
|                     I_WHOLE_SLICE.G_SLICE_IDX[9].U_ALL_SRL_SLICE                     |    <0.001 |
|                       u_srlA                                                         |    <0.001 |
|                       u_srlB                                                         |    <0.001 |
|                       u_srlC                                                         |    <0.001 |
|                       u_srlD                                                         |    <0.001 |
|               N_DDR_MODE.G_NMU[1].U_M                                                |    <0.001 |
|                 allx_typeA_match_detection.ltlib_v1_0_0_allx_typeA_inst              |    <0.001 |
|                   DUT                                                                |    <0.001 |
|                     I_WHOLE_SLICE.G_SLICE_IDX[0].U_ALL_SRL_SLICE                     |    <0.001 |
|                       u_srlA                                                         |    <0.001 |
|                       u_srlB                                                         |    <0.001 |
|                       u_srlC                                                         |    <0.001 |
|                       u_srlD                                                         |    <0.001 |
|                     I_WHOLE_SLICE.G_SLICE_IDX[1].U_ALL_SRL_SLICE                     |    <0.001 |
|                       u_srlA                                                         |    <0.001 |
|                       u_srlB                                                         |    <0.001 |
|                       u_srlC                                                         |    <0.001 |
|                       u_srlD                                                         |    <0.001 |
|                     I_WHOLE_SLICE.G_SLICE_IDX[2].U_ALL_SRL_SLICE                     |    <0.001 |
|                       u_srlA                                                         |    <0.001 |
|                       u_srlB                                                         |    <0.001 |
|                       u_srlC                                                         |    <0.001 |
|                       u_srlD                                                         |    <0.001 |
|                     I_WHOLE_SLICE.G_SLICE_IDX[3].U_ALL_SRL_SLICE                     |    <0.001 |
|                       u_srlA                                                         |    <0.001 |
|                       u_srlB                                                         |    <0.001 |
|                       u_srlC                                                         |    <0.001 |
|                       u_srlD                                                         |    <0.001 |
|               N_DDR_MODE.G_NMU[2].U_M                                                |    <0.001 |
|                 allx_typeA_match_detection.ltlib_v1_0_0_allx_typeA_inst              |    <0.001 |
|                   DUT                                                                |    <0.001 |
|                     I_WHOLE_SLICE.G_SLICE_IDX[0].U_ALL_SRL_SLICE                     |    <0.001 |
|                       u_srlA                                                         |    <0.001 |
|                       u_srlB                                                         |    <0.001 |
|                       u_srlC                                                         |    <0.001 |
|                       u_srlD                                                         |    <0.001 |
|               N_DDR_MODE.G_NMU[3].U_M                                                |    <0.001 |
|                 allx_typeA_match_detection.ltlib_v1_0_0_allx_typeA_inst              |    <0.001 |
|                   DUT                                                                |    <0.001 |
|                     I_WHOLE_SLICE.G_SLICE_IDX[0].U_ALL_SRL_SLICE                     |    <0.001 |
|                       u_srlA                                                         |    <0.001 |
|                       u_srlB                                                         |    <0.001 |
|                       u_srlC                                                         |    <0.001 |
|                       u_srlD                                                         |    <0.001 |
|           xsdb_memory_read_inst                                                      |    <0.001 |
|     txPll                                                                            |     0.102 |
|       inst                                                                           |     0.102 |
|     vio                                                                              |    <0.001 |
|       inst                                                                           |    <0.001 |
|         DECODER_INST                                                                 |    <0.001 |
|         PROBE_IN_INST                                                                |    <0.001 |
|         PROBE_IN_WIDTH_INST                                                          |    <0.001 |
|         PROBE_OUT_ALL_INST                                                           |    <0.001 |
|           G_PROBE_OUT[0].PROBE_OUT0_INST                                             |    <0.001 |
|           G_PROBE_OUT[1].PROBE_OUT0_INST                                             |    <0.001 |
|           G_PROBE_OUT[2].PROBE_OUT0_INST                                             |    <0.001 |
|           G_PROBE_OUT[3].PROBE_OUT0_INST                                             |    <0.001 |
|           G_PROBE_OUT[4].PROBE_OUT0_INST                                             |    <0.001 |
|           G_PROBE_OUT[5].PROBE_OUT0_INST                                             |    <0.001 |
|           G_PROBE_OUT[6].PROBE_OUT0_INST                                             |    <0.001 |
|           G_PROBE_OUT[7].PROBE_OUT0_INST                                             |    <0.001 |
|           G_PROBE_OUT[8].PROBE_OUT0_INST                                             |    <0.001 |
|         PROBE_OUT_WIDTH_INST                                                         |    <0.001 |
|         U_XSDB_SLAVE                                                                 |    <0.001 |
+--------------------------------------------------------------------------------------+-----------+


