xpm_cdc.sv,systemverilog,xil_defaultlib,../../../../../../../../../opt/Xilinx/Vivado/2016.2/data/ip/xpm/xpm_cdc/hdl/xpm_cdc.sv,incdir="../../../../../../../core_sources/chipscope_vio/vivado/ltlib_v1_0_0/hdl/verilog"incdir="../../../../../../../core_sources/chipscope_vio/vivado/vio_v3_0_12/hdl"incdir="../../../../../../../core_sources/chipscope_vio/vivado/xsdbm_v1_1_3/hdl/verilog"incdir="../../../../../../../core_sources/chipscope_vio/vivado/xsdbs_v1_0_2/hdl/verilog"
xpm_memory_base.sv,systemverilog,xil_defaultlib,../../../../../../../../../opt/Xilinx/Vivado/2016.2/data/ip/xpm/xpm_memory/hdl/xpm_memory_base.sv,incdir="../../../../../../../core_sources/chipscope_vio/vivado/ltlib_v1_0_0/hdl/verilog"incdir="../../../../../../../core_sources/chipscope_vio/vivado/vio_v3_0_12/hdl"incdir="../../../../../../../core_sources/chipscope_vio/vivado/xsdbm_v1_1_3/hdl/verilog"incdir="../../../../../../../core_sources/chipscope_vio/vivado/xsdbs_v1_0_2/hdl/verilog"
xpm_memory_dpdistram.sv,systemverilog,xil_defaultlib,../../../../../../../../../opt/Xilinx/Vivado/2016.2/data/ip/xpm/xpm_memory/hdl/xpm_memory_dpdistram.sv,incdir="../../../../../../../core_sources/chipscope_vio/vivado/ltlib_v1_0_0/hdl/verilog"incdir="../../../../../../../core_sources/chipscope_vio/vivado/vio_v3_0_12/hdl"incdir="../../../../../../../core_sources/chipscope_vio/vivado/xsdbm_v1_1_3/hdl/verilog"incdir="../../../../../../../core_sources/chipscope_vio/vivado/xsdbs_v1_0_2/hdl/verilog"
xpm_memory_dprom.sv,systemverilog,xil_defaultlib,../../../../../../../../../opt/Xilinx/Vivado/2016.2/data/ip/xpm/xpm_memory/hdl/xpm_memory_dprom.sv,incdir="../../../../../../../core_sources/chipscope_vio/vivado/ltlib_v1_0_0/hdl/verilog"incdir="../../../../../../../core_sources/chipscope_vio/vivado/vio_v3_0_12/hdl"incdir="../../../../../../../core_sources/chipscope_vio/vivado/xsdbm_v1_1_3/hdl/verilog"incdir="../../../../../../../core_sources/chipscope_vio/vivado/xsdbs_v1_0_2/hdl/verilog"
xpm_memory_sdpram.sv,systemverilog,xil_defaultlib,../../../../../../../../../opt/Xilinx/Vivado/2016.2/data/ip/xpm/xpm_memory/hdl/xpm_memory_sdpram.sv,incdir="../../../../../../../core_sources/chipscope_vio/vivado/ltlib_v1_0_0/hdl/verilog"incdir="../../../../../../../core_sources/chipscope_vio/vivado/vio_v3_0_12/hdl"incdir="../../../../../../../core_sources/chipscope_vio/vivado/xsdbm_v1_1_3/hdl/verilog"incdir="../../../../../../../core_sources/chipscope_vio/vivado/xsdbs_v1_0_2/hdl/verilog"
xpm_memory_spram.sv,systemverilog,xil_defaultlib,../../../../../../../../../opt/Xilinx/Vivado/2016.2/data/ip/xpm/xpm_memory/hdl/xpm_memory_spram.sv,incdir="../../../../../../../core_sources/chipscope_vio/vivado/ltlib_v1_0_0/hdl/verilog"incdir="../../../../../../../core_sources/chipscope_vio/vivado/vio_v3_0_12/hdl"incdir="../../../../../../../core_sources/chipscope_vio/vivado/xsdbm_v1_1_3/hdl/verilog"incdir="../../../../../../../core_sources/chipscope_vio/vivado/xsdbs_v1_0_2/hdl/verilog"
xpm_memory_sprom.sv,systemverilog,xil_defaultlib,../../../../../../../../../opt/Xilinx/Vivado/2016.2/data/ip/xpm/xpm_memory/hdl/xpm_memory_sprom.sv,incdir="../../../../../../../core_sources/chipscope_vio/vivado/ltlib_v1_0_0/hdl/verilog"incdir="../../../../../../../core_sources/chipscope_vio/vivado/vio_v3_0_12/hdl"incdir="../../../../../../../core_sources/chipscope_vio/vivado/xsdbm_v1_1_3/hdl/verilog"incdir="../../../../../../../core_sources/chipscope_vio/vivado/xsdbs_v1_0_2/hdl/verilog"
xpm_memory_tdpram.sv,systemverilog,xil_defaultlib,../../../../../../../../../opt/Xilinx/Vivado/2016.2/data/ip/xpm/xpm_memory/hdl/xpm_memory_tdpram.sv,incdir="../../../../../../../core_sources/chipscope_vio/vivado/ltlib_v1_0_0/hdl/verilog"incdir="../../../../../../../core_sources/chipscope_vio/vivado/vio_v3_0_12/hdl"incdir="../../../../../../../core_sources/chipscope_vio/vivado/xsdbm_v1_1_3/hdl/verilog"incdir="../../../../../../../core_sources/chipscope_vio/vivado/xsdbs_v1_0_2/hdl/verilog"
xpm_VCOMP.vhd,vhdl,xpm,../../../../../../../../../opt/Xilinx/Vivado/2016.2/data/ip/xpm/xpm_VCOMP.vhd,incdir="../../../../../../../core_sources/chipscope_vio/vivado/ltlib_v1_0_0/hdl/verilog"incdir="../../../../../../../core_sources/chipscope_vio/vivado/vio_v3_0_12/hdl"incdir="../../../../../../../core_sources/chipscope_vio/vivado/xsdbm_v1_1_3/hdl/verilog"incdir="../../../../../../../core_sources/chipscope_vio/vivado/xsdbs_v1_0_2/hdl/verilog"
xlx_k7v7_vio.v,verilog,xil_defaultlib,../../../../../../../core_sources/chipscope_vio/vivado/sim/xlx_k7v7_vio.v,incdir="../../../../../../../core_sources/chipscope_vio/vivado/ltlib_v1_0_0/hdl/verilog"incdir="../../../../../../../core_sources/chipscope_vio/vivado/vio_v3_0_12/hdl"incdir="../../../../../../../core_sources/chipscope_vio/vivado/xsdbm_v1_1_3/hdl/verilog"incdir="../../../../../../../core_sources/chipscope_vio/vivado/xsdbs_v1_0_2/hdl/verilog"
glbl.v,Verilog,xil_defaultlib,glbl.v
