$date
        2018-Jan-22 18:57:56
$end
$version
        Vivado v2016.4 (64-bit)
$end
$timescale
        1ps
$end
$scope module dut $end
$var reg 84 " usr/txData_from_gbtBank_1 [83:0] $end
$var reg 32 v usr/txExtraDataWidebus_from_gbtExmplDsgn [31:0] $end
$var reg 4 8" usr/PROBE2 [3:0] $end
$var reg 1 <" usr/txIsDataSel_from_gbtBank_1_user_1 $end
$var reg 1 =" _TRIGGER $end
$var reg 1 >" _WINDOW $end
$var reg 1 ?" _GAP $end
$upscope $end
$enddefinitions $end
#0
$dumpvars
b0 "
b0 v
b0 8"
0<"
1="
1>"
0?"
$end
